<svg xmlns="http://www.w3.org/2000/svg" width="30.833" height="25.408" viewBox="0 0 30.833 25.408">
  <path id="Path_18" data-name="Path 18" d="M924.863,455.816c-8.514,0-15.417,2.844-15.417,6.352v12.7c0,3.508,6.9,6.352,15.417,6.352s15.416-2.844,15.416-6.352v-12.7C940.279,458.66,933.377,455.816,924.863,455.816ZM938.748,471.7c-2.154,2.188-7.122,3.442-13.63,3.442-6.636,0-11.65-1.3-13.757-3.572a.98.98,0,0,1,1.438-1.333c1.684,1.817,6.4,2.945,12.318,2.945,5.9,0,10.472-1.068,12.233-2.857a.98.98,0,0,1,1.4,1.374Zm0-7.831c-2.154,2.187-7.123,3.441-13.63,3.441-6.637,0-11.651-1.3-13.757-3.572a.98.98,0,0,1,1.438-1.333c1.683,1.817,6.4,2.945,12.318,2.945,5.9,0,10.471-1.068,12.233-2.857a.98.98,0,0,1,1.4,1.375Z" transform="translate(-909.446 -455.816)" fill="#dddee1" opacity="0.9"/>
</svg>
